{
  "formatVersion": 1,
  "database": {
    "version": 4,
    "identityHash": "cd06195c9c79ef848665ff7971fcf5b6",
    "entities": [
      {
        "tableName": "alarms",
        "createSql": "CREATE TABLE IF NOT EXISTS `${TABLE_NAME}` (`_id` INTEGER PRIMARY KEY AUTOINCREMENT NOT NULL, `title` TEXT, `date` TEXT, `time` TEXT, `year` INTEGER NOT NULL, `month` INTEGER NOT NULL, `day` INTEGER NOT NULL, `hour` INTEGER NOT NULL, `minute` INTEGER NOT NULL, `repeat` TEXT, `profile` INTEGER NOT NULL, `valid` INTEGER NOT NULL, `brightness` INTEGER NOT NULL)",
        "fields": [
          {
            "fieldPath": "_id",
            "columnName": "_id",
            "affinity": "INTEGER",
            "notNull": true
          },
          {
            "fieldPath": "title",
            "columnName": "title",
            "affinity": "TEXT",
            "notNull": false
          },
          {
            "fieldPath": "date",
            "columnName": "date",
            "affinity": "TEXT",
            "notNull": false
          },
          {
            "fieldPath": "time",
            "columnName": "time",
            "affinity": "TEXT",
            "notNull": false
          },
          {
            "fieldPath": "year",
            "columnName": "year",
            "affinity": "INTEGER",
            "notNull": true
          },
          {
            "fieldPath": "month",
            "columnName": "month",
            "affinity": "INTEGER",
            "notNull": true
          },
          {
            "fieldPath": "day",
            "columnName": "day",
            "affinity": "INTEGER",
            "notNull": true
          },
          {
            "fieldPath": "hour",
            "columnName": "hour",
            "affinity": "INTEGER",
            "notNull": true
          },
          {
            "fieldPath": "minute",
            "columnName": "minute",
            "affinity": "INTEGER",
            "notNull": true
          },
          {
            "fieldPath": "repeat",
            "columnName": "repeat",
            "affinity": "TEXT",
            "notNull": false
          },
          {
            "fieldPath": "profile",
            "columnName": "profile",
            "affinity": "INTEGER",
            "notNull": true
          },
          {
            "fieldPath": "isValid",
            "columnName": "valid",
            "affinity": "INTEGER",
            "notNull": true
          },
          {
            "fieldPath": "brightness",
            "columnName": "brightness",
            "affinity": "INTEGER",
            "notNull": true
          }
        ],
        "primaryKey": {
          "columnNames": [
            "_id"
          ],
          "autoGenerate": true
        },
        "indices": [],
        "foreignKeys": []
      }
    ],
    "setupQueries": [
      "CREATE TABLE IF NOT EXISTS room_master_table (id INTEGER PRIMARY KEY,identity_hash TEXT)",
      "INSERT OR REPLACE INTO room_master_table (id,identity_hash) VALUES(42, \"cd06195c9c79ef848665ff7971fcf5b6\")"
    ]
  }
}